<?xml version="1.0" encoding="UTF-8" standalone="no"?>
<!-- Created with Inkscape (http://www.inkscape.org/) -->

<svg
   xmlns:dc="http://purl.org/dc/elements/1.1/"
   xmlns:cc="http://creativecommons.org/ns#"
   xmlns:rdf="http://www.w3.org/1999/02/22-rdf-syntax-ns#"
   xmlns:svg="http://www.w3.org/2000/svg"
   xmlns="http://www.w3.org/2000/svg"
   xmlns:sodipodi="http://sodipodi.sourceforge.net/DTD/sodipodi-0.dtd"
   xmlns:inkscape="http://www.inkscape.org/namespaces/inkscape"
   width="1920"
   height="1080"
   viewBox="0 0 1920 1080"
   version="1.1"
   id="svg8"
   inkscape:version="0.92.3 (2405546, 2018-03-11)"
   sodipodi:docname="clearing.svg">
  <sodipodi:namedview
     id="base"
     pagecolor="#ffffff"
     bordercolor="#666666"
     borderopacity="1.0"
     inkscape:pageopacity="0.0"
     inkscape:pageshadow="2"
     inkscape:zoom="0.35000002"
     inkscape:cx="1274.1923"
     inkscape:cy="649.92175"
     inkscape:document-units="px"
     inkscape:current-layer="level"
     showgrid="false"
     inkscape:window-width="1598"
     inkscape:window-height="862"
     inkscape:window-x="0"
     inkscape:window-y="18"
     inkscape:window-maximized="0"
     inkscape:snap-bbox="true"
     inkscape:bbox-paths="false"
     inkscape:bbox-nodes="true"
     showguides="true"
     inkscape:guide-bbox="true"
     units="px"
     scale-x="1"
     inkscape:snap-global="true" />
  <defs
     id="defs2" />
  <metadata
     id="metadata5">
    <rdf:RDF>
      <cc:Work
         rdf:about="">
        <dc:format>image/svg+xml</dc:format>
        <dc:type
           rdf:resource="http://purl.org/dc/dcmitype/StillImage" />
        <dc:title />
      </cc:Work>
    </rdf:RDF>
  </metadata>
  <g
     style="display:inline"
     transform="translate(0,-11.249909)"
     id="logic"
     inkscape:groupmode="layer"
     inkscape:label="logic">
    <rect
       class="exit"
       data-next="uneven"
       y="712.90155"
       x="1758.1559"
       height="247.05414"
       width="144.29712"
       id="rect1626"
       style="fill:#4d4d4d;fill-opacity:1;stroke:none;stroke-width:0.05335872;stroke-miterlimit:4;stroke-dasharray:none" />
    <rect
       y="268.33792"
       x="100.48201"
       height="144.2971"
       width="80.893829"
       id="player"
       style="display:inline;fill:#800000;fill-opacity:1;stroke:none;stroke-width:0.10225257;stroke-miterlimit:4;stroke-dasharray:none" />
    <rect
       style="display:inline;fill:#0000ff;fill-opacity:1;stroke:none;stroke-width:0.05264565;stroke-miterlimit:4;stroke-dasharray:none"
       id="rect1705"
       width="144.29712"
       height="240.49518"
       x="34.025776"
       y="719.46051"
       data-next="dream"
       class="exit" />
  </g>
  <g
     style="display:inline"
     inkscape:label="level"
     id="level"
     inkscape:groupmode="layer"
     transform="translate(0,-794.24991)">
    <text
       xml:space="preserve"
       style="font-style:normal;font-variant:normal;font-weight:normal;font-stretch:normal;font-size:64.9303894px;line-height:1;font-family:Vollkorn;-inkscape-font-specification:'Vollkorn, Normal';font-variant-ligatures:normal;font-variant-position:normal;font-variant-caps:normal;font-variant-numeric:normal;font-variant-alternates:normal;font-feature-settings:normal;text-indent:0;text-align:start;text-decoration:none;text-decoration-line:none;text-decoration-style:solid;text-decoration-color:#000000;letter-spacing:1.35271633px;word-spacing:0px;text-transform:none;writing-mode:lr-tb;direction:ltr;text-orientation:mixed;dominant-baseline:auto;baseline-shift:baseline;text-anchor:start;white-space:normal;shape-padding:0;display:inline;opacity:1;vector-effect:none;fill:#000000;fill-opacity:1;stroke:none;stroke-width:0.27054325;stroke-linecap:butt;stroke-linejoin:miter;stroke-miterlimit:4;stroke-dasharray:none;stroke-dashoffset:0;stroke-opacity:1"
       x="31.14286"
       y="1234.2499"
       id="text5483"><tspan
         sodipodi:role="line"
         x="31.14286"
         y="1234.2499"
         id="tspan5553">Your path ends abruptly </tspan><tspan
         sodipodi:role="line"
         x="31.14286"
         y="1299.1803"
         id="tspan5557">on a clearing in the woods.    </tspan></text>
    <text
       transform="translate(0,783)"
       xml:space="preserve"
       style="display:inline;font-style:normal;font-variant:normal;font-weight:normal;font-stretch:normal;font-size:64.9303894px;line-height:1;font-family:Vollkorn;-inkscape-font-specification:'Vollkorn, Normal';font-variant-ligatures:normal;font-variant-position:normal;font-variant-caps:normal;font-variant-numeric:normal;font-variant-alternates:normal;font-feature-settings:normal;text-indent:0;text-align:start;text-decoration:none;text-decoration-line:none;text-decoration-style:solid;text-decoration-color:#000000;letter-spacing:1.35271633px;word-spacing:0px;text-transform:none;writing-mode:lr-tb;direction:ltr;text-orientation:mixed;dominant-baseline:auto;baseline-shift:baseline;text-anchor:start;white-space:normal;shape-padding:0;opacity:1;vector-effect:none;fill:#000000;fill-opacity:1;stroke:none;stroke-width:0.27054325;stroke-linecap:butt;stroke-linejoin:miter;stroke-miterlimit:4;stroke-dasharray:none;stroke-dashoffset:0;stroke-opacity:1;"
       x="791.42853"
       y="839.82141"
       id="text5619"><tspan
         sodipodi:role="line"
         id="tspan5617"
         x="791.42853"
         y="839.82141">ripe berries.</tspan></text>
    <text
       transform="translate(0,783)"
       xml:space="preserve"
       style="display:inline;font-style:normal;font-variant:normal;font-weight:normal;font-stretch:normal;font-size:64.9303894px;line-height:1;font-family:Vollkorn;-inkscape-font-specification:'Vollkorn, Normal';font-variant-ligatures:normal;font-variant-position:normal;font-variant-caps:normal;font-variant-numeric:normal;font-variant-alternates:normal;font-feature-settings:normal;text-indent:0;text-align:start;text-decoration:none;text-decoration-line:none;text-decoration-style:solid;text-decoration-color:#000000;letter-spacing:1.35271633px;word-spacing:0px;text-transform:none;writing-mode:lr-tb;direction:ltr;text-orientation:mixed;dominant-baseline:auto;baseline-shift:baseline;text-anchor:start;white-space:normal;shape-padding:0;opacity:1;vector-effect:none;fill:#000000;fill-opacity:1;stroke:none;stroke-width:0.27054325;stroke-linecap:butt;stroke-linejoin:miter;stroke-miterlimit:4;stroke-dasharray:none;stroke-dashoffset:0;stroke-opacity:1;"
       x="811.42853"
       y="774.10712"
       id="text5623"><tspan
         sodipodi:role="line"
         id="tspan5621"
         x="811.42853"
         y="774.10712">full of red</tspan></text>
    <text
       transform="translate(0,783)"
       xml:space="preserve"
       style="display:inline;font-style:normal;font-variant:normal;font-weight:normal;font-stretch:normal;font-size:64.9303894px;line-height:1;font-family:Vollkorn;-inkscape-font-specification:'Vollkorn, Normal';font-variant-ligatures:normal;font-variant-position:normal;font-variant-caps:normal;font-variant-numeric:normal;font-variant-alternates:normal;font-feature-settings:normal;text-indent:0;text-align:start;text-decoration:none;text-decoration-line:none;text-decoration-style:solid;text-decoration-color:#000000;letter-spacing:1.35271633px;word-spacing:0px;text-transform:none;writing-mode:lr-tb;direction:ltr;text-orientation:mixed;dominant-baseline:auto;baseline-shift:baseline;text-anchor:start;white-space:normal;shape-padding:0;opacity:1;vector-effect:none;fill:#000000;fill-opacity:1;stroke:none;stroke-width:0.27054325;stroke-linecap:butt;stroke-linejoin:miter;stroke-miterlimit:4;stroke-dasharray:none;stroke-dashoffset:0;stroke-opacity:1;"
       x="877.14282"
       y="702.67853"
       id="text5627"><tspan
         sodipodi:role="line"
         id="tspan5625"
         x="877.14282"
         y="702.67853">shrub</tspan></text>
    <text
       transform="translate(0,783)"
       xml:space="preserve"
       style="display:inline;font-style:normal;font-variant:normal;font-weight:normal;font-stretch:normal;font-size:64.9303894px;line-height:1;font-family:Vollkorn;-inkscape-font-specification:'Vollkorn, Normal';font-variant-ligatures:normal;font-variant-position:normal;font-variant-caps:normal;font-variant-numeric:normal;font-variant-alternates:normal;font-feature-settings:normal;text-indent:0;text-align:start;text-decoration:none;text-decoration-line:none;text-decoration-style:solid;text-decoration-color:#000000;letter-spacing:1.35271633px;word-spacing:0px;text-transform:none;writing-mode:lr-tb;direction:ltr;text-orientation:mixed;dominant-baseline:auto;baseline-shift:baseline;text-anchor:start;white-space:normal;shape-padding:0;opacity:1;vector-effect:none;fill:#000000;fill-opacity:1;stroke:none;stroke-width:0.27054325;stroke-linecap:butt;stroke-linejoin:miter;stroke-miterlimit:4;stroke-dasharray:none;stroke-dashoffset:0;stroke-opacity:1;"
       x="457.14279"
       y="882.09412"
       id="text5653"><tspan
         sodipodi:role="line"
         id="tspan5651"
         x="457.14279"
         y="882.09412">There is a</tspan></text>
    <text
       xml:space="preserve"
       style="font-style:normal;font-variant:normal;font-weight:normal;font-stretch:normal;font-size:64.9303894px;line-height:1;font-family:Vollkorn;-inkscape-font-specification:'Vollkorn, Normal';font-variant-ligatures:normal;font-variant-position:normal;font-variant-caps:normal;font-variant-numeric:normal;font-variant-alternates:normal;font-feature-settings:normal;text-indent:0;text-align:start;text-decoration:none;text-decoration-line:none;text-decoration-style:solid;text-decoration-color:#000000;letter-spacing:1.35271633px;word-spacing:0px;text-transform:none;writing-mode:lr-tb;direction:ltr;text-orientation:mixed;dominant-baseline:auto;baseline-shift:baseline;text-anchor:start;white-space:normal;shape-padding:0;display:inline;opacity:1;vector-effect:none;fill:#000000;fill-opacity:1;stroke:none;stroke-width:0.27054325;stroke-linecap:butt;stroke-linejoin:miter;stroke-miterlimit:4;stroke-dasharray:none;stroke-dashoffset:0;stroke-opacity:1;"
       x="1188.5713"
       y="1664.868"
       id="text5657"><tspan
         sodipodi:role="line"
         id="tspan5655"
         x="1188.5713"
         y="1664.868">They look delicious</tspan></text>
    <text
       transform="translate(0,783)"
       xml:space="preserve"
       style="display:inline;font-style:normal;font-variant:normal;font-weight:normal;font-stretch:normal;font-size:64.9303894px;line-height:1;font-family:Vollkorn;-inkscape-font-specification:'Vollkorn, Normal';font-variant-ligatures:normal;font-variant-position:normal;font-variant-caps:normal;font-variant-numeric:normal;font-variant-alternates:normal;font-feature-settings:normal;text-indent:0;text-align:start;text-decoration:none;text-decoration-line:none;text-decoration-style:solid;text-decoration-color:#000000;letter-spacing:1.35271633px;word-spacing:0px;text-transform:none;writing-mode:lr-tb;direction:ltr;text-orientation:mixed;dominant-baseline:auto;baseline-shift:baseline;text-anchor:start;white-space:normal;shape-padding:0;opacity:1;vector-effect:none;fill:#000000;fill-opacity:1;stroke:none;stroke-width:0.27054325;stroke-linecap:butt;stroke-linejoin:miter;stroke-miterlimit:4;stroke-dasharray:none;stroke-dashoffset:0;stroke-opacity:1;"
       x="977.14282"
       y="1006.5108"
       id="text5683"><tspan
         sodipodi:role="line"
         id="tspan5681"
         x="977.14282"
         y="1006.5108">but dangerous, so you just pass.</tspan></text>
    <text
       transform="translate(0,783)"
       xml:space="preserve"
       style="display:inline;font-style:normal;font-variant:normal;font-weight:normal;font-stretch:normal;font-size:64.9303894px;line-height:1;font-family:Vollkorn;-inkscape-font-specification:'Vollkorn, Normal';font-variant-ligatures:normal;font-variant-position:normal;font-variant-caps:normal;font-variant-numeric:normal;font-variant-alternates:normal;font-feature-settings:normal;text-indent:0;text-align:start;text-decoration:none;text-decoration-line:none;text-decoration-style:solid;text-decoration-color:#000000;letter-spacing:1.35271633px;word-spacing:0px;text-transform:none;writing-mode:lr-tb;direction:ltr;text-orientation:mixed;dominant-baseline:auto;baseline-shift:baseline;text-anchor:start;white-space:normal;shape-padding:0;opacity:1;vector-effect:none;fill:#000000;fill-opacity:1;stroke:none;stroke-width:0.27054325;stroke-linecap:butt;stroke-linejoin:miter;stroke-miterlimit:4;stroke-dasharray:none;stroke-dashoffset:0;stroke-opacity:1;"
       x="31.428562"
       y="1006.5108"
       id="text5687"><tspan
         sodipodi:role="line"
         id="tspan5685"
         x="31.428562"
         y="1006.5108">so you try a handful.</tspan></text>
  </g>
  <g
     inkscape:label="background"
     id="background"
     inkscape:groupmode="layer"
     transform="translate(0,-794.24991)" />
</svg>
