<?xml version="1.0" encoding="UTF-8" standalone="no"?>
<!-- Created with Inkscape (http://www.inkscape.org/) -->

<svg
   xmlns:dc="http://purl.org/dc/elements/1.1/"
   xmlns:cc="http://creativecommons.org/ns#"
   xmlns:rdf="http://www.w3.org/1999/02/22-rdf-syntax-ns#"
   xmlns:svg="http://www.w3.org/2000/svg"
   xmlns="http://www.w3.org/2000/svg"
   xmlns:xlink="http://www.w3.org/1999/xlink"
   xmlns:sodipodi="http://sodipodi.sourceforge.net/DTD/sodipodi-0.dtd"
   xmlns:inkscape="http://www.inkscape.org/namespaces/inkscape"
   width="1920"
   height="1080"
   viewBox="0 0 1920 1080"
   version="1.1"
   id="svg8"
   inkscape:version="0.92.2 5c3e80d, 2017-08-06"
   sodipodi:docname="dream9.svg">
  <sodipodi:namedview
     id="base"
     pagecolor="#ffffff"
     bordercolor="#666666"
     borderopacity="1.0"
     inkscape:pageopacity="0.0"
     inkscape:pageshadow="2"
     inkscape:zoom="0.49497476"
     inkscape:cx="1037.8258"
     inkscape:cy="578.5497"
     inkscape:document-units="px"
     inkscape:current-layer="logic"
     showgrid="false"
     inkscape:window-width="1596"
     inkscape:window-height="861"
     inkscape:window-x="0"
     inkscape:window-y="18"
     inkscape:window-maximized="0"
     inkscape:snap-bbox="true"
     inkscape:bbox-paths="false"
     inkscape:bbox-nodes="true"
     showguides="true"
     inkscape:guide-bbox="true"
     units="px"
     scale-x="1"
     inkscape:snap-global="false">
    <sodipodi:guide
       position="-559.62449,1036.4165"
       orientation="1,0"
       id="guide4159"
       inkscape:locked="false" />
  </sodipodi:namedview>
  <defs
     id="defs2" />
  <metadata
     id="metadata5">
    <rdf:RDF>
      <cc:Work
         rdf:about="">
        <dc:format>image/svg+xml</dc:format>
        <dc:type
           rdf:resource="http://purl.org/dc/dcmitype/StillImage" />
        <dc:title></dc:title>
      </cc:Work>
    </rdf:RDF>
  </metadata>
  <g
     style="display:inline"
     transform="translate(0,-11.249909)"
     id="logic"
     inkscape:groupmode="layer"
     inkscape:label="logic">
    <rect
       class="exit"
       data-next="wake_up"
       y="668.52826"
       x="1772.1971"
       height="240.99321"
       width="146.31743"
       id="rect1626"
       style="fill:#4d4d4d;fill-opacity:1;stroke:none;stroke-width:0.05306779;stroke-miterlimit:4;stroke-dasharray:none" />
    <rect
       y="443.82605"
       x="229.31497"
       height="144.2971"
       width="80.893829"
       id="player"
       style="display:inline;fill:#800000;fill-opacity:1;stroke:none;stroke-width:0.10225257;stroke-miterlimit:4;stroke-dasharray:none" />
    <text
       xml:space="preserve"
       style="font-style:normal;font-variant:normal;font-weight:normal;font-stretch:normal;font-size:66.66666412px;line-height:0.80000001;font-family:Vollkorn;-inkscape-font-specification:'Vollkorn, Normal';font-variant-ligatures:normal;font-variant-position:normal;font-variant-caps:normal;font-variant-numeric:normal;font-variant-alternates:normal;font-feature-settings:normal;text-indent:0;text-align:start;text-decoration:none;text-decoration-line:none;text-decoration-style:solid;text-decoration-color:#000000;letter-spacing:0px;word-spacing:0px;text-transform:none;writing-mode:lr-tb;direction:ltr;text-orientation:mixed;dominant-baseline:auto;baseline-shift:baseline;text-anchor:start;white-space:normal;shape-padding:0;opacity:1;vector-effect:none;fill:#4d4d4d;fill-opacity:1;stroke:none;stroke-width:0.27054325;stroke-linecap:butt;stroke-linejoin:miter;stroke-miterlimit:4;stroke-dasharray:none;stroke-dashoffset:0;stroke-opacity:1"
       x="723.26923"
       y="260.90454"
       id="text1782"><tspan
         sodipodi:role="line"
         id="tspan1780"
         x="723.26923"
         y="299.79901" /></text>
    <path
       style="fill:none;stroke:#000000;stroke-width:1px;stroke-linecap:butt;stroke-linejoin:miter;stroke-opacity:0"
       d="M 42.426406,862.95544 C 144.70571,606.33064 285.61366,487.64265 527.78203,808.81035 610.89239,919.03269 766.01144,1100.0619 915.1777,950.28932 1061.4538,803.41865 1196.136,610.54271 1381.914,794.16184 c 91.0764,90.0181 237.2622,193.80577 323.4377,103.75207 91.6145,-95.73735 125.5224,-13.45583 193.7351,-2.63358"
       id="path2245"
       inkscape:connector-curvature="0"
       sodipodi:nodetypes="cssssc" />
    <text
       xml:space="preserve"
       style="font-style:normal;font-variant:normal;font-weight:normal;font-stretch:normal;font-size:46.66666794px;line-height:1;font-family:Vollkorn;-inkscape-font-specification:'Vollkorn, Normal';font-variant-ligatures:normal;font-variant-position:normal;font-variant-caps:normal;font-variant-numeric:normal;font-variant-alternates:normal;font-feature-settings:normal;text-indent:0;text-align:start;text-decoration:none;text-decoration-line:none;text-decoration-style:solid;text-decoration-color:#000000;letter-spacing:1.35271633px;word-spacing:0px;text-transform:none;writing-mode:lr-tb;direction:ltr;text-orientation:mixed;dominant-baseline:auto;baseline-shift:baseline;text-anchor:start;white-space:normal;shape-padding:0;opacity:1;vector-effect:none;fill:#000000;fill-opacity:1;stroke:none;stroke-width:0.27054325;stroke-linecap:butt;stroke-linejoin:miter;stroke-miterlimit:4;stroke-dasharray:none;stroke-dashoffset:0;stroke-opacity:1"
       id="text2249"><textPath
         xlink:href="#path2245"
         id="textPath2265"><tspan
   id="tspan2247"
   style="font-size:46.66666794px">You are carried away by the surge of words words words words snails words words words words wordswords </tspan></textPath></text>
    <text
       xml:space="preserve"
       style="font-style:normal;font-weight:normal;font-size:40px;line-height:1.25;font-family:sans-serif;letter-spacing:0px;word-spacing:0px;fill:#000000;fill-opacity:1;stroke:none"
       x="1765.7466"
       y="856.89453"
       id="text2270"><tspan
         sodipodi:role="line"
         id="tspan2268"
         x="1765.7466"
         y="892.28516"></tspan></text>
  </g>
  <g
     style="display:inline"
     inkscape:label="level"
     id="level"
     inkscape:groupmode="layer"
     transform="translate(0,-794.24991)">
    <flowRoot
       transform="translate(0,783)"
       xml:space="preserve"
       id="flowRoot5485"
       style="display:inline;font-style:normal;font-weight:normal;font-size:40px;line-height:1.25;font-family:sans-serif;letter-spacing:0px;word-spacing:0px;fill:#000000;fill-opacity:1;stroke:none"><flowRegion
         id="flowRegion5487"><rect
           id="rect5489"
           width="1897.1428"
           height="914.28571"
           x="88.571426"
           y="297.14288" /></flowRegion><flowPara
         id="flowPara5491" /></flowRoot>    <flowRoot
       transform="translate(0,783)"
       xml:space="preserve"
       id="flowRoot5563"
       style="display:inline;font-style:normal;font-variant:normal;font-weight:normal;font-stretch:normal;font-size:medium;line-height:1;font-family:Vollkorn;-inkscape-font-specification:'Vollkorn, Normal';font-variant-ligatures:normal;font-variant-position:normal;font-variant-caps:normal;font-variant-numeric:normal;font-variant-alternates:normal;font-feature-settings:normal;text-indent:0;text-align:start;text-decoration:none;text-decoration-line:none;text-decoration-style:solid;text-decoration-color:#000000;letter-spacing:1.35271633px;word-spacing:0px;text-transform:none;writing-mode:lr-tb;direction:ltr;text-orientation:mixed;dominant-baseline:auto;baseline-shift:baseline;text-anchor:start;white-space:normal;shape-padding:0;opacity:1;vector-effect:none;fill:#4d4d4d;fill-opacity:1;stroke:none;stroke-width:0.27054325;stroke-linecap:butt;stroke-linejoin:miter;stroke-miterlimit:4;stroke-dasharray:none;stroke-dashoffset:0;stroke-opacity:1"><flowRegion
         id="flowRegion5565"
         style="font-style:normal;font-variant:normal;font-weight:normal;font-stretch:normal;font-size:medium;line-height:1;font-family:Vollkorn;-inkscape-font-specification:'Vollkorn, Normal';font-variant-ligatures:normal;font-variant-position:normal;font-variant-caps:normal;font-variant-numeric:normal;font-variant-alternates:normal;font-feature-settings:normal;text-indent:0;text-align:start;text-decoration:none;text-decoration-line:none;text-decoration-style:solid;text-decoration-color:#000000;letter-spacing:1.35271633px;word-spacing:0px;text-transform:none;writing-mode:lr-tb;direction:ltr;text-orientation:mixed;dominant-baseline:auto;baseline-shift:baseline;text-anchor:start;white-space:normal;shape-padding:0;vector-effect:none;fill:#4d4d4d;fill-opacity:1;stroke:none;stroke-width:0.27054325;stroke-linecap:butt;stroke-linejoin:miter;stroke-miterlimit:4;stroke-dasharray:none;stroke-dashoffset:0;stroke-opacity:1"><rect
           id="rect5567"
           width="1077.1428"
           height="354.28571"
           x="671.42853"
           y="400.00003"
           style="font-style:normal;font-variant:normal;font-weight:normal;font-stretch:normal;font-size:medium;line-height:1;font-family:Vollkorn;-inkscape-font-specification:'Vollkorn, Normal';font-variant-ligatures:normal;font-variant-position:normal;font-variant-caps:normal;font-variant-numeric:normal;font-variant-alternates:normal;font-feature-settings:normal;text-indent:0;text-align:start;text-decoration:none;text-decoration-line:none;text-decoration-style:solid;text-decoration-color:#000000;letter-spacing:1.35271633px;word-spacing:0px;text-transform:none;writing-mode:lr-tb;direction:ltr;text-orientation:mixed;dominant-baseline:auto;baseline-shift:baseline;text-anchor:start;white-space:normal;shape-padding:0;vector-effect:none;fill:#4d4d4d;fill-opacity:1;stroke:none;stroke-width:0.27054325;stroke-linecap:butt;stroke-linejoin:miter;stroke-miterlimit:4;stroke-dasharray:none;stroke-dashoffset:0;stroke-opacity:1" /></flowRegion><flowPara
         id="flowPara5569" /></flowRoot>    <flowRoot
       transform="translate(0,783)"
       xml:space="preserve"
       id="flowRoot5629"
       style="display:inline;font-style:normal;font-variant:normal;font-weight:normal;font-stretch:normal;font-size:64.9303894px;line-height:1;font-family:Vollkorn;-inkscape-font-specification:'Vollkorn, Normal';font-variant-ligatures:normal;font-variant-position:normal;font-variant-caps:normal;font-variant-numeric:normal;font-variant-alternates:normal;font-feature-settings:normal;text-indent:0;text-align:start;text-decoration:none;text-decoration-line:none;text-decoration-style:solid;text-decoration-color:#000000;letter-spacing:1.35271633px;word-spacing:0px;text-transform:none;writing-mode:lr-tb;direction:ltr;text-orientation:mixed;dominant-baseline:auto;baseline-shift:baseline;text-anchor:start;white-space:normal;shape-padding:0;opacity:1;vector-effect:none;fill:#4d4d4d;fill-opacity:1;stroke:none;stroke-width:0.27054325;stroke-linecap:butt;stroke-linejoin:miter;stroke-miterlimit:4;stroke-dasharray:none;stroke-dashoffset:0;stroke-opacity:1"><flowRegion
         id="flowRegion5631"
         style="font-style:normal;font-variant:normal;font-weight:normal;font-stretch:normal;font-size:64.9303894px;line-height:1;font-family:Vollkorn;-inkscape-font-specification:'Vollkorn, Normal';font-variant-ligatures:normal;font-variant-position:normal;font-variant-caps:normal;font-variant-numeric:normal;font-variant-alternates:normal;font-feature-settings:normal;text-indent:0;text-align:start;text-decoration:none;text-decoration-line:none;text-decoration-style:solid;text-decoration-color:#000000;letter-spacing:1.35271633px;word-spacing:0px;text-transform:none;writing-mode:lr-tb;direction:ltr;text-orientation:mixed;dominant-baseline:auto;baseline-shift:baseline;text-anchor:start;white-space:normal;shape-padding:0;vector-effect:none;fill:#4d4d4d;fill-opacity:1;stroke:none;stroke-width:0.27054325;stroke-linecap:butt;stroke-linejoin:miter;stroke-miterlimit:4;stroke-dasharray:none;stroke-dashoffset:0;stroke-opacity:1"><rect
           id="rect5633"
           width="722.85712"
           height="497.14285"
           x="548.57141"
           y="625.71429"
           style="font-style:normal;font-variant:normal;font-weight:normal;font-stretch:normal;font-size:64.9303894px;line-height:1;font-family:Vollkorn;-inkscape-font-specification:'Vollkorn, Normal';font-variant-ligatures:normal;font-variant-position:normal;font-variant-caps:normal;font-variant-numeric:normal;font-variant-alternates:normal;font-feature-settings:normal;text-indent:0;text-align:start;text-decoration:none;text-decoration-line:none;text-decoration-style:solid;text-decoration-color:#000000;letter-spacing:1.35271633px;word-spacing:0px;text-transform:none;writing-mode:lr-tb;direction:ltr;text-orientation:mixed;dominant-baseline:auto;baseline-shift:baseline;text-anchor:start;white-space:normal;shape-padding:0;vector-effect:none;fill:#4d4d4d;fill-opacity:1;stroke:none;stroke-width:0.27054325;stroke-linecap:butt;stroke-linejoin:miter;stroke-miterlimit:4;stroke-dasharray:none;stroke-dashoffset:0;stroke-opacity:1" /></flowRegion><flowPara
         id="flowPara5635" /></flowRoot>    <flowRoot
       transform="translate(0,783)"
       xml:space="preserve"
       id="flowRoot5689"
       style="display:inline;font-style:normal;font-variant:normal;font-weight:normal;font-stretch:normal;font-size:64.9303894px;line-height:1;font-family:Vollkorn;-inkscape-font-specification:'Vollkorn, Normal';font-variant-ligatures:normal;font-variant-position:normal;font-variant-caps:normal;font-variant-numeric:normal;font-variant-alternates:normal;font-feature-settings:normal;text-indent:0;text-align:start;text-decoration:none;text-decoration-line:none;text-decoration-style:solid;text-decoration-color:#000000;letter-spacing:1.35271633px;word-spacing:0px;text-transform:none;writing-mode:lr-tb;direction:ltr;text-orientation:mixed;dominant-baseline:auto;baseline-shift:baseline;text-anchor:start;white-space:normal;shape-padding:0;opacity:1;vector-effect:none;fill:#4d4d4d;fill-opacity:1;stroke:none;stroke-width:0.27054325;stroke-linecap:butt;stroke-linejoin:miter;stroke-miterlimit:4;stroke-dasharray:none;stroke-dashoffset:0;stroke-opacity:1"><flowRegion
         id="flowRegion5691"
         style="font-style:normal;font-variant:normal;font-weight:normal;font-stretch:normal;font-size:64.9303894px;line-height:1;font-family:Vollkorn;-inkscape-font-specification:'Vollkorn, Normal';font-variant-ligatures:normal;font-variant-position:normal;font-variant-caps:normal;font-variant-numeric:normal;font-variant-alternates:normal;font-feature-settings:normal;text-indent:0;text-align:start;text-decoration:none;text-decoration-line:none;text-decoration-style:solid;text-decoration-color:#000000;letter-spacing:1.35271633px;word-spacing:0px;text-transform:none;writing-mode:lr-tb;direction:ltr;text-orientation:mixed;dominant-baseline:auto;baseline-shift:baseline;text-anchor:start;white-space:normal;shape-padding:0;vector-effect:none;fill:#4d4d4d;fill-opacity:1;stroke:none;stroke-width:0.27054325;stroke-linecap:butt;stroke-linejoin:miter;stroke-miterlimit:4;stroke-dasharray:none;stroke-dashoffset:0;stroke-opacity:1"><rect
           id="rect5693"
           width="902.85712"
           height="125.71428"
           x="168.57143"
           y="777.14288"
           style="font-style:normal;font-variant:normal;font-weight:normal;font-stretch:normal;font-size:64.9303894px;line-height:1;font-family:Vollkorn;-inkscape-font-specification:'Vollkorn, Normal';font-variant-ligatures:normal;font-variant-position:normal;font-variant-caps:normal;font-variant-numeric:normal;font-variant-alternates:normal;font-feature-settings:normal;text-indent:0;text-align:start;text-decoration:none;text-decoration-line:none;text-decoration-style:solid;text-decoration-color:#000000;letter-spacing:1.35271633px;word-spacing:0px;text-transform:none;writing-mode:lr-tb;direction:ltr;text-orientation:mixed;dominant-baseline:auto;baseline-shift:baseline;text-anchor:start;white-space:normal;shape-padding:0;vector-effect:none;fill:#4d4d4d;fill-opacity:1;stroke:none;stroke-width:0.27054325;stroke-linecap:butt;stroke-linejoin:miter;stroke-miterlimit:4;stroke-dasharray:none;stroke-dashoffset:0;stroke-opacity:1" /></flowRegion><flowPara
         id="flowPara5695" /></flowRoot>    <flowRoot
       transform="translate(0,783)"
       xml:space="preserve"
       id="flowRoot5925"
       style="display:inline;font-style:normal;font-weight:normal;font-size:40px;line-height:1.25;font-family:sans-serif;letter-spacing:0px;word-spacing:0px;fill:#000000;fill-opacity:1;stroke:none"><flowRegion
         id="flowRegion5927"><rect
           id="rect5929"
           width="28.571428"
           height="82.85714"
           x="1582.8571"
           y="377.14288" /></flowRegion><flowPara
         id="flowPara5931" /></flowRoot>    <flowRoot
       transform="translate(0,783)"
       xml:space="preserve"
       id="flowRoot5933"
       style="display:inline;font-style:normal;font-weight:normal;font-size:40px;line-height:1.25;font-family:sans-serif;letter-spacing:0px;word-spacing:0px;fill:#000000;fill-opacity:1;stroke:none"><flowRegion
         id="flowRegion5935"><rect
           id="rect5937"
           width="485.71426"
           height="140"
           x="142.85713"
           y="308.57144" /></flowRegion><flowPara
         id="flowPara5939" /></flowRoot>    <flowRoot
       transform="translate(0,783)"
       xml:space="preserve"
       id="flowRoot5941"
       style="display:inline;font-style:normal;font-weight:normal;font-size:40px;line-height:1.25;font-family:sans-serif;letter-spacing:0px;word-spacing:0px;fill:#000000;fill-opacity:1;stroke:none"><flowRegion
         id="flowRegion5943"><rect
           id="rect5945"
           width="260"
           height="85.714287"
           x="1497.1428"
           y="628.57141" /></flowRegion><flowPara
         id="flowPara5947" /></flowRoot>    <text
       transform="translate(0,783)"
       xml:space="preserve"
       style="display:inline;font-style:normal;font-weight:normal;font-size:40px;line-height:1.25;font-family:sans-serif;letter-spacing:0px;word-spacing:0px;fill:#000000;fill-opacity:1;stroke:none"
       x="1491.4285"
       y="865.53564"
       id="text6166"><tspan
         sodipodi:role="line"
         id="tspan6164"
         x="1491.4285"
         y="900.92627" /></text>
    <flowRoot
       transform="translate(0,783)"
       xml:space="preserve"
       id="flowRoot6468"
       style="display:inline;font-style:normal;font-weight:normal;font-size:40px;line-height:1.25;font-family:sans-serif;letter-spacing:0px;word-spacing:0px;fill:#000000;fill-opacity:1;stroke:none"><flowRegion
         id="flowRegion6470"><rect
           id="rect6472"
           width="1741.5029"
           height="484.8732"
           x="12.12183"
           y="-41.269291" /></flowRegion><flowPara
         id="flowPara6474" /></flowRoot>    <flowRoot
       transform="translate(0,783)"
       xml:space="preserve"
       id="flowRoot6476"
       style="display:inline;font-style:normal;font-weight:normal;font-size:40px;line-height:1.25;font-family:sans-serif;letter-spacing:0px;word-spacing:0px;fill:#000000;fill-opacity:1;stroke:none"><flowRegion
         id="flowRegion6478"><rect
           id="rect6480"
           width="1820.2948"
           height="494.97473"
           x="14.142136"
           y="-71.573868" /></flowRegion><flowPara
         id="flowPara6482" /></flowRoot>    <flowRoot
       transform="translate(0,783)"
       xml:space="preserve"
       id="flowRoot6484"
       style="display:inline;font-style:normal;font-weight:normal;font-size:40px;line-height:1.25;font-family:sans-serif;letter-spacing:0px;word-spacing:0px;fill:#000000;fill-opacity:1;stroke:none"><flowRegion
         id="flowRegion6486"><rect
           id="rect6488"
           width="175.76654"
           height="630.33514"
           x="1598.0613"
           y="43.583519" /></flowRegion><flowPara
         id="flowPara6490" /></flowRoot>    <flowRoot
       transform="translate(0,783)"
       xml:space="preserve"
       id="flowRoot6553"
       style="display:inline;font-style:normal;font-weight:normal;font-size:40px;line-height:1.25;font-family:sans-serif;letter-spacing:0px;word-spacing:0px;fill:#000000;fill-opacity:1;stroke:none"><flowRegion
         id="flowRegion6555"><rect
           id="rect6557"
           width="1046.5181"
           height="385.87827"
           x="101.01525"
           y="382.99475" /></flowRegion><flowPara
         id="flowPara6559" /></flowRoot>    <flowRoot
       transform="translate(0,783)"
       xml:space="preserve"
       id="flowRoot6561"
       style="display:inline;font-style:normal;font-weight:normal;font-size:40px;line-height:1.25;font-family:sans-serif;letter-spacing:0px;word-spacing:0px;fill:#000000;fill-opacity:1;stroke:none"><flowRegion
         id="flowRegion6563"><rect
           id="rect6565"
           width="68.690369"
           height="135.36044"
           x="34.345184"
           y="803.2182" /></flowRegion><flowPara
         id="flowPara6567" /></flowRoot>    <flowRoot
       xml:space="preserve"
       id="flowRoot284"
       style="display:inline;font-style:normal;font-variant:normal;font-weight:normal;font-stretch:normal;font-size:40px;line-height:1.25;font-family:'Bilbo Swash Caps';-inkscape-font-specification:'Bilbo Swash Caps';letter-spacing:0px;word-spacing:0px;fill:#000000;fill-opacity:1;stroke:none"
       transform="translate(0,794.24991)"><flowRegion
         id="flowRegion286"
         style="font-style:normal;font-variant:normal;font-weight:normal;font-stretch:normal;font-family:'Bilbo Swash Caps';-inkscape-font-specification:'Bilbo Swash Caps'"><rect
           id="rect288"
           width="996.01038"
           height="402.04071"
           x="34.345184"
           y="88.030228"
           style="font-style:normal;font-variant:normal;font-weight:normal;font-stretch:normal;font-family:'Bilbo Swash Caps';-inkscape-font-specification:'Bilbo Swash Caps'" /></flowRegion><flowPara
         id="flowPara290" /></flowRoot>    <flowRoot
       xml:space="preserve"
       id="flowRoot308"
       style="display:inline;font-style:normal;font-weight:normal;font-size:40px;line-height:1.25;font-family:sans-serif;letter-spacing:0px;word-spacing:0px;fill:#000000;fill-opacity:1;stroke:none"
       transform="translate(0,794.24991)"><flowRegion
         id="flowRegion310"><rect
           id="rect312"
           width="1044.4977"
           height="598.01031"
           x="-236.37569"
           y="-51.370819" /></flowRegion><flowPara
         id="flowPara314" /></flowRoot>    <flowRoot
       xml:space="preserve"
       id="flowRoot316"
       style="display:inline;font-style:normal;font-weight:normal;font-size:192px;line-height:1.25;font-family:sans-serif;letter-spacing:0px;word-spacing:0px;fill:#000000;fill-opacity:1;stroke:none"
       transform="translate(0,794.24991)"><flowRegion
         id="flowRegion318"
         style="font-size:192px"><rect
           id="rect320"
           width="808.12201"
           height="533.36053"
           x="-10.101525"
           y="-23.08655"
           style="font-size:192px" /></flowRegion><flowPara
         id="flowPara322" /></flowRoot>    <flowRoot
       xml:space="preserve"
       id="flowRoot356"
       style="display:inline;font-style:normal;font-weight:normal;font-size:40px;line-height:1.25;font-family:sans-serif;letter-spacing:0px;word-spacing:0px;fill:#000000;fill-opacity:1;stroke:none"
       transform="translate(0,794.24991)"><flowRegion
         id="flowRegion358"><rect
           id="rect360"
           width="1216.2236"
           height="660.63977"
           x="107.07616"
           y="73.888092" /></flowRegion><flowPara
         id="flowPara362" /></flowRoot>    <flowRoot
       xml:space="preserve"
       id="flowRoot664"
       style="display:inline;font-style:normal;font-weight:normal;font-size:40px;line-height:1.25;font-family:sans-serif;letter-spacing:0px;word-spacing:0px;fill:#000000;fill-opacity:1;stroke:none"
       transform="translate(0,794.24991)"><flowRegion
         id="flowRegion666"><rect
           id="rect668"
           width="955.60431"
           height="598.01031"
           x="3287.0364"
           y="1920.4469" /></flowRegion><flowPara
         id="flowPara670" /></flowRoot>    <flowRoot
       xml:space="preserve"
       id="flowRoot718"
       style="display:inline;font-style:normal;font-weight:normal;font-size:40px;line-height:1.25;font-family:sans-serif;letter-spacing:0px;word-spacing:0px;fill:#000000;fill-opacity:1;stroke:none"
       transform="translate(0,794.24991)"><flowRegion
         id="flowRegion720"><rect
           id="rect722"
           width="1143.4927"
           height="711.1474"
           x="151.52287"
           y="83.989616" /></flowRegion><flowPara
         id="flowPara724" /></flowRoot>    <flowRoot
       xml:space="preserve"
       id="flowRoot726"
       style="display:inline;font-style:normal;font-weight:normal;font-size:40px;line-height:1.25;font-family:sans-serif;letter-spacing:0px;word-spacing:0px;fill:#000000;fill-opacity:1;stroke:none"
       transform="translate(0,794.24991)"><flowRegion
         id="flowRegion728"><rect
           id="rect730"
           width="806.10168"
           height="274.76147"
           x="246.47722"
           y="484.01001" /></flowRegion><flowPara
         id="flowPara732" /></flowRoot>    <flowRoot
       xml:space="preserve"
       id="flowRoot794"
       style="display:inline;font-style:normal;font-weight:normal;font-size:40px;line-height:1.25;font-family:sans-serif;letter-spacing:0px;word-spacing:0px;fill:#000000;fill-opacity:1;stroke:none"
       transform="translate(0,794.24991)"><flowRegion
         id="flowRegion796"><rect
           id="rect798"
           width="812.1626"
           height="145.46196"
           x="674.78186"
           y="207.22823" /></flowRegion><flowPara
         id="flowPara800" /></flowRoot>    <flowRoot
       xml:space="preserve"
       id="flowRoot879"
       style="display:inline;font-style:normal;font-variant:normal;font-weight:normal;font-stretch:normal;font-size:medium;line-height:1.25;font-family:sans-serif;font-variant-ligatures:normal;font-variant-position:normal;font-variant-caps:normal;font-variant-numeric:normal;font-variant-alternates:normal;font-feature-settings:normal;text-indent:0;text-align:start;text-decoration:none;text-decoration-line:none;text-decoration-style:solid;text-decoration-color:#000000;letter-spacing:0px;word-spacing:0px;text-transform:none;writing-mode:lr-tb;direction:ltr;text-orientation:mixed;dominant-baseline:auto;baseline-shift:baseline;text-anchor:start;white-space:normal;shape-padding:0;opacity:1;vector-effect:none;fill:#000000;fill-opacity:1;stroke:none;stroke-width:1;stroke-linecap:butt;stroke-linejoin:miter;stroke-miterlimit:4;stroke-dasharray:none;stroke-dashoffset:0;stroke-opacity:1"
       transform="translate(0,794.24991)"><flowRegion
         id="flowRegion881"
         style="font-style:normal;font-variant:normal;font-weight:normal;font-stretch:normal;font-size:medium;line-height:1.25;font-family:sans-serif;font-variant-ligatures:normal;font-variant-position:normal;font-variant-caps:normal;font-variant-numeric:normal;font-variant-alternates:normal;font-feature-settings:normal;text-indent:0;text-align:start;text-decoration:none;text-decoration-line:none;text-decoration-style:solid;text-decoration-color:#000000;letter-spacing:0px;word-spacing:0px;text-transform:none;writing-mode:lr-tb;direction:ltr;text-orientation:mixed;dominant-baseline:auto;baseline-shift:baseline;text-anchor:start;white-space:normal;shape-padding:0;vector-effect:none;fill:#000000;fill-opacity:1;stroke:none;stroke-width:1;stroke-linecap:butt;stroke-linejoin:miter;stroke-miterlimit:4;stroke-dasharray:none;stroke-dashoffset:0;stroke-opacity:1"><rect
           id="rect883"
           width="2139.5029"
           height="648.51794"
           x="-395.9798"
           y="-4.9038038"
           style="font-style:normal;font-variant:normal;font-weight:normal;font-stretch:normal;font-size:medium;line-height:1.25;font-family:sans-serif;font-variant-ligatures:normal;font-variant-position:normal;font-variant-caps:normal;font-variant-numeric:normal;font-variant-alternates:normal;font-feature-settings:normal;text-indent:0;text-align:start;text-decoration:none;text-decoration-line:none;text-decoration-style:solid;text-decoration-color:#000000;letter-spacing:0px;word-spacing:0px;text-transform:none;writing-mode:lr-tb;direction:ltr;text-orientation:mixed;dominant-baseline:auto;baseline-shift:baseline;text-anchor:start;white-space:normal;shape-padding:0;vector-effect:none;fill:#000000;fill-opacity:1;stroke:none;stroke-width:1;stroke-linecap:butt;stroke-linejoin:miter;stroke-miterlimit:4;stroke-dasharray:none;stroke-dashoffset:0;stroke-opacity:1" /></flowRegion><flowPara
         id="flowPara885" /></flowRoot>    <text
       id="text1689"
       y="1559.6488"
       x="1022.2585"
       style="display:inline;font-style:normal;font-variant:normal;font-weight:normal;font-stretch:normal;font-size:10.82173061px;line-height:1.25;font-family:vollkorn;-inkscape-font-specification:vollkorn;letter-spacing:0px;word-spacing:0px;fill:#000000;fill-opacity:1;stroke:none;stroke-width:0.27054325"
       xml:space="preserve"><tspan
         style="stroke-width:0.27054325"
         y="1568.3972"
         x="1022.2585"
         id="tspan1687"
         sodipodi:role="line" /></text>
    <text
       xml:space="preserve"
       style="display:inline;font-style:normal;font-variant:normal;font-weight:normal;font-stretch:normal;font-size:64.9303894px;line-height:1.25;font-family:Vollkorn;-inkscape-font-specification:'Vollkorn, Normal';font-variant-ligatures:normal;font-variant-caps:normal;font-variant-numeric:normal;font-feature-settings:normal;text-align:start;letter-spacing:0px;word-spacing:0px;writing-mode:lr-tb;text-anchor:start;fill:#4d4d4d;fill-opacity:1;stroke:none;stroke-width:0.27054325"
       x="1106.4318"
       y="1476.078"
       id="text1697"><tspan
         id="tspan1724"
         sodipodi:role="line"
         x="1106.4318"
         y="1528.5688"
         style="stroke-width:0.27054325" /></text>
    <text
       xml:space="preserve"
       style="display:inline;font-style:normal;font-variant:normal;font-weight:normal;font-stretch:normal;font-size:16.80104256px;line-height:1.25;font-family:Vollkorn;-inkscape-font-specification:'Vollkorn, Normal';font-variant-ligatures:normal;font-variant-caps:normal;font-variant-numeric:normal;font-feature-settings:normal;text-align:start;letter-spacing:0px;word-spacing:0px;writing-mode:lr-tb;text-anchor:start;fill:#4d4d4d;fill-opacity:1;stroke:none;stroke-width:0.07000434"
       x="324.45923"
       y="941.5567"
       id="text1729"><tspan
         id="tspan1727"
         sodipodi:role="line"
         x="324.45923"
         y="955.13898"
         style="stroke-width:0.07000434" /></text>
    <flowRoot
       xml:space="preserve"
       id="flowRoot3813"
       style="display:inline;font-style:normal;font-weight:normal;font-size:40px;line-height:1.25;font-family:sans-serif;letter-spacing:0px;word-spacing:0px;fill:#000000;fill-opacity:1;stroke:none"><flowRegion
         id="flowRegion3815"><rect
           id="rect3817"
           width="214.15233"
           height="137.38074"
           x="1466.7415"
           y="340.56836" /></flowRegion><flowPara
         id="flowPara3819" /></flowRoot>    <flowRoot
       xml:space="preserve"
       id="flowRoot3821"
       style="display:inline;font-style:normal;font-weight:normal;font-size:40px;line-height:1.25;font-family:sans-serif;letter-spacing:0px;word-spacing:0px;fill:#000000;fill-opacity:1;stroke:none"
       transform="translate(0,794.24991)"><flowRegion
         id="flowRegion3823"><rect
           id="rect3825"
           width="82.832504"
           height="42.426407"
           x="1194.0002"
           y="336.52774" /></flowRegion><flowPara
         id="flowPara3827">h</flowPara></flowRoot>    <flowRoot
       xml:space="preserve"
       id="flowRoot3833"
       style="display:inline;font-style:normal;font-variant:normal;font-weight:normal;font-stretch:normal;font-size:40px;line-height:1.25;font-family:Vollkorn;-inkscape-font-specification:Vollkorn;letter-spacing:0px;word-spacing:0px;fill:#000000;fill-opacity:1;stroke:none"><flowRegion
         id="flowRegion3835"
         style="font-style:normal;font-variant:normal;font-weight:normal;font-stretch:normal;font-family:Vollkorn;-inkscape-font-specification:Vollkorn"><rect
           id="rect3837"
           width="131.31982"
           height="153.54318"
           x="1226.3252"
           y="308.24347"
           style="font-style:normal;font-variant:normal;font-weight:normal;font-stretch:normal;font-family:Vollkorn;-inkscape-font-specification:Vollkorn" /></flowRegion><flowPara
         id="flowPara3839" /></flowRoot>    <text
       xml:space="preserve"
       style="display:inline;font-style:normal;font-variant:normal;font-weight:normal;font-stretch:normal;font-size:64.9303894px;line-height:1.25;font-family:Vollkorn;-inkscape-font-specification:'Vollkorn, Normal';font-variant-ligatures:normal;font-variant-position:normal;font-variant-caps:normal;font-variant-numeric:normal;font-variant-alternates:normal;font-feature-settings:normal;text-indent:0;text-align:start;text-decoration:none;text-decoration-line:none;text-decoration-style:solid;text-decoration-color:#000000;letter-spacing:1.35271633px;word-spacing:0px;text-transform:none;writing-mode:lr-tb;direction:ltr;text-orientation:mixed;dominant-baseline:auto;baseline-shift:baseline;text-anchor:start;white-space:normal;shape-padding:0;opacity:1;vector-effect:none;fill:#4d4d4d;fill-opacity:1;stroke:none;stroke-width:0.27054325;stroke-linecap:butt;stroke-linejoin:miter;stroke-miterlimit:4;stroke-dasharray:none;stroke-dashoffset:0;stroke-opacity:1"
       x="1393.5535"
       y="1678.2803"
       id="text3897"><tspan
         sodipodi:role="line"
         id="tspan3895"
         x="1393.5535"
         y="1730.7711" /></text>
    <text
       xml:space="preserve"
       style="display:inline;font-style:normal;font-weight:normal;font-size:40px;line-height:1.25;font-family:sans-serif;letter-spacing:0px;word-spacing:0px;fill:#000000;fill-opacity:1;stroke:none"
       x="913.17786"
       y="1423.7219"
       id="text3978"><tspan
         sodipodi:role="line"
         id="tspan3976"
         x="913.17786"
         y="1459.1125" /></text>
    <flowRoot
       xml:space="preserve"
       id="flowRoot3984"
       style="display:inline;font-style:normal;font-variant:normal;font-weight:normal;font-stretch:normal;font-size:64.9303894px;line-height:1.25;font-family:Vollkorn;-inkscape-font-specification:'Vollkorn, Normal';font-variant-ligatures:normal;font-variant-position:normal;font-variant-caps:normal;font-variant-numeric:normal;font-variant-alternates:normal;font-feature-settings:normal;text-indent:0;text-align:start;text-decoration:none;text-decoration-line:none;text-decoration-style:solid;text-decoration-color:#000000;letter-spacing:1.35271633px;word-spacing:0px;text-transform:none;writing-mode:lr-tb;direction:ltr;text-orientation:mixed;dominant-baseline:auto;baseline-shift:baseline;text-anchor:start;white-space:normal;shape-padding:0;opacity:1;vector-effect:none;fill:#4d4d4d;fill-opacity:1;stroke:none;stroke-width:0.27054325;stroke-linecap:butt;stroke-linejoin:miter;stroke-miterlimit:4;stroke-dasharray:none;stroke-dashoffset:0;stroke-opacity:1"><flowRegion
         id="flowRegion3986"
         style="font-style:normal;font-variant:normal;font-weight:normal;font-stretch:normal;font-size:64.9303894px;line-height:1.25;font-family:Vollkorn;-inkscape-font-specification:'Vollkorn, Normal';font-variant-ligatures:normal;font-variant-position:normal;font-variant-caps:normal;font-variant-numeric:normal;font-variant-alternates:normal;font-feature-settings:normal;text-indent:0;text-align:start;text-decoration:none;text-decoration-line:none;text-decoration-style:solid;text-decoration-color:#000000;letter-spacing:1.35271633px;word-spacing:0px;text-transform:none;writing-mode:lr-tb;direction:ltr;text-orientation:mixed;dominant-baseline:auto;baseline-shift:baseline;text-anchor:start;white-space:normal;shape-padding:0;vector-effect:none;fill:#4d4d4d;fill-opacity:1;stroke:none;stroke-width:0.27054325;stroke-linecap:butt;stroke-linejoin:miter;stroke-miterlimit:4;stroke-dasharray:none;stroke-dashoffset:0;stroke-opacity:1"><rect
           id="rect3988"
           width="670.74127"
           height="189.90868"
           x="618.21332"
           y="625.4314"
           style="font-style:normal;font-variant:normal;font-weight:normal;font-stretch:normal;font-size:64.9303894px;line-height:1.25;font-family:Vollkorn;-inkscape-font-specification:'Vollkorn, Normal';font-variant-ligatures:normal;font-variant-position:normal;font-variant-caps:normal;font-variant-numeric:normal;font-variant-alternates:normal;font-feature-settings:normal;text-indent:0;text-align:start;text-decoration:none;text-decoration-line:none;text-decoration-style:solid;text-decoration-color:#000000;letter-spacing:1.35271633px;word-spacing:0px;text-transform:none;writing-mode:lr-tb;direction:ltr;text-orientation:mixed;dominant-baseline:auto;baseline-shift:baseline;text-anchor:start;white-space:normal;shape-padding:0;vector-effect:none;fill:#4d4d4d;fill-opacity:1;stroke:none;stroke-width:0.27054325;stroke-linecap:butt;stroke-linejoin:miter;stroke-miterlimit:4;stroke-dasharray:none;stroke-dashoffset:0;stroke-opacity:1" /></flowRegion><flowPara
         id="flowPara3990" /></flowRoot>    <flowRoot
       xml:space="preserve"
       id="flowRoot4020"
       style="display:inline;font-style:normal;font-weight:normal;font-size:40px;line-height:1.25;font-family:sans-serif;letter-spacing:0px;word-spacing:0px;fill:#000000;fill-opacity:1;stroke:none"><flowRegion
         id="flowRegion4022"><rect
           id="rect4024"
           width="777.81744"
           height="141.42136"
           x="1250.5688"
           y="605.22833" /></flowRegion><flowPara
         id="flowPara4026" /></flowRoot>    <flowRoot
       xml:space="preserve"
       id="flowRoot4054"
       style="display:inline;font-style:normal;font-weight:normal;font-size:40px;line-height:1.25;font-family:sans-serif;letter-spacing:0px;word-spacing:0px;fill:#000000;fill-opacity:1;stroke:none"><flowRegion
         id="flowRegion4056"><rect
           id="rect4058"
           width="755.59406"
           height="254.55844"
           x="1654.6299"
           y="845.64459" /></flowRegion><flowPara
         id="flowPara4060" /></flowRoot>    <flowRoot
       xml:space="preserve"
       id="flowRoot5426"
       style="display:inline;font-style:normal;font-weight:normal;font-size:40px;line-height:1.25;font-family:sans-serif;letter-spacing:0px;word-spacing:0px;fill:#000000;fill-opacity:1;stroke:none"><flowRegion
         id="flowRegion5428"><rect
           id="rect5430"
           width="634.28571"
           height="305.71426"
           x="1245.7142"
           y="911.42859" /></flowRegion><flowPara
         id="flowPara5432" /></flowRoot>    <flowRoot
       xml:space="preserve"
       id="flowRoot5442"
       style="display:inline;font-style:normal;font-variant:normal;font-weight:normal;font-stretch:normal;font-size:64.9303894px;line-height:1.25;font-family:Vollkorn;-inkscape-font-specification:'Vollkorn, Normal';font-variant-ligatures:normal;font-variant-position:normal;font-variant-caps:normal;font-variant-numeric:normal;font-variant-alternates:normal;font-feature-settings:normal;text-indent:0;text-align:start;text-decoration:none;text-decoration-line:none;text-decoration-style:solid;text-decoration-color:#000000;letter-spacing:1.35271633px;word-spacing:0px;text-transform:none;writing-mode:lr-tb;direction:ltr;text-orientation:mixed;dominant-baseline:auto;baseline-shift:baseline;text-anchor:start;white-space:normal;shape-padding:0;opacity:1;vector-effect:none;fill:#4d4d4d;fill-opacity:1;stroke:none;stroke-width:0.27054325;stroke-linecap:butt;stroke-linejoin:miter;stroke-miterlimit:4;stroke-dasharray:none;stroke-dashoffset:0;stroke-opacity:1"><flowRegion
         id="flowRegion5444"
         style="font-style:normal;font-variant:normal;font-weight:normal;font-stretch:normal;font-size:64.9303894px;line-height:1.25;font-family:Vollkorn;-inkscape-font-specification:'Vollkorn, Normal';font-variant-ligatures:normal;font-variant-position:normal;font-variant-caps:normal;font-variant-numeric:normal;font-variant-alternates:normal;font-feature-settings:normal;text-indent:0;text-align:start;text-decoration:none;text-decoration-line:none;text-decoration-style:solid;text-decoration-color:#000000;letter-spacing:1.35271633px;word-spacing:0px;text-transform:none;writing-mode:lr-tb;direction:ltr;text-orientation:mixed;dominant-baseline:auto;baseline-shift:baseline;text-anchor:start;white-space:normal;shape-padding:0;vector-effect:none;fill:#4d4d4d;fill-opacity:1;stroke:none;stroke-width:0.27054325;stroke-linecap:butt;stroke-linejoin:miter;stroke-miterlimit:4;stroke-dasharray:none;stroke-dashoffset:0;stroke-opacity:1"><rect
           id="rect5446"
           width="377.14285"
           height="337.14285"
           x="802.85712"
           y="594.28571"
           style="font-style:normal;font-variant:normal;font-weight:normal;font-stretch:normal;font-size:64.9303894px;line-height:1.25;font-family:Vollkorn;-inkscape-font-specification:'Vollkorn, Normal';font-variant-ligatures:normal;font-variant-position:normal;font-variant-caps:normal;font-variant-numeric:normal;font-variant-alternates:normal;font-feature-settings:normal;text-indent:0;text-align:start;text-decoration:none;text-decoration-line:none;text-decoration-style:solid;text-decoration-color:#000000;letter-spacing:1.35271633px;word-spacing:0px;text-transform:none;writing-mode:lr-tb;direction:ltr;text-orientation:mixed;dominant-baseline:auto;baseline-shift:baseline;text-anchor:start;white-space:normal;shape-padding:0;vector-effect:none;fill:#4d4d4d;fill-opacity:1;stroke:none;stroke-width:0.27054325;stroke-linecap:butt;stroke-linejoin:miter;stroke-miterlimit:4;stroke-dasharray:none;stroke-dashoffset:0;stroke-opacity:1" /></flowRegion><flowPara
         id="flowPara5448" /></flowRoot>    <flowRoot
       xml:space="preserve"
       id="flowRoot1142"
       style="fill:black;fill-opacity:1;stroke:none;font-family:sans-serif;font-style:normal;font-weight:normal;font-size:40px;line-height:1.25;letter-spacing:0px;word-spacing:0px"><flowRegion
         id="flowRegion1144"><rect
           id="rect1146"
           width="1402.0917"
           height="220.21324"
           x="200.01019"
           y="176.92365" /></flowRegion><flowPara
         id="flowPara1148" /></flowRoot>  </g>
  <g
     inkscape:label="background"
     id="background"
     inkscape:groupmode="layer"
     transform="translate(0,-794.24991)" />
</svg>
