<?xml version="1.0" encoding="UTF-8" standalone="no"?>
<!-- Created with Inkscape (http://www.inkscape.org/) -->

<svg
   xmlns:dc="http://purl.org/dc/elements/1.1/"
   xmlns:cc="http://creativecommons.org/ns#"
   xmlns:rdf="http://www.w3.org/1999/02/22-rdf-syntax-ns#"
   xmlns:svg="http://www.w3.org/2000/svg"
   xmlns="http://www.w3.org/2000/svg"
   xmlns:sodipodi="http://sodipodi.sourceforge.net/DTD/sodipodi-0.dtd"
   xmlns:inkscape="http://www.inkscape.org/namespaces/inkscape"
   width="1920"
   height="1080"
   viewBox="0 0 1920 1080"
   version="1.1"
   id="svg7415"
   inkscape:version="0.92.2 5c3e80d, 2017-08-06"
   sodipodi:docname="treehouse_staircase.svg"
   inkscape:export-filename="/home/claudia/wip/ld41/story/static/backgrounds/treehouse_staircase.png"
   inkscape:export-xdpi="96"
   inkscape:export-ydpi="96">
  <defs
     id="defs7409" />
  <sodipodi:namedview
     id="base"
     pagecolor="#ffffff"
     bordercolor="#666666"
     borderopacity="1.0"
     inkscape:pageopacity="0.0"
     inkscape:pageshadow="2"
     inkscape:zoom="0.35"
     inkscape:cx="618.57147"
     inkscape:cy="705.86286"
     inkscape:document-units="px"
     inkscape:current-layer="background"
     showgrid="false"
     units="px"
     inkscape:window-width="1596"
     inkscape:window-height="861"
     inkscape:window-x="0"
     inkscape:window-y="18"
     inkscape:window-maximized="0" />
  <metadata
     id="metadata7412">
    <rdf:RDF>
      <cc:Work
         rdf:about="">
        <dc:format>image/svg+xml</dc:format>
        <dc:type
           rdf:resource="http://purl.org/dc/dcmitype/StillImage" />
        <dc:title />
      </cc:Work>
    </rdf:RDF>
  </metadata>
  <g
     inkscape:label="background"
     inkscape:groupmode="layer"
     id="background"
     transform="translate(0,-42.519652)" />
  <g
     inkscape:groupmode="layer"
     id="logic"
     inkscape:label="logic"
     style="display:inline">
    <rect
       style="display:inline;fill:#0000ff;fill-opacity:1;stroke:none;stroke-width:0.0320381;stroke-miterlimit:4;stroke-dasharray:none"
       id="rect1705"
       width="144.29712"
       height="89.066605"
       x="1131.4069"
       y="880.89526"
       data-next="dream"
       class="exit" />
    <rect
       y="20.422844"
       x="1137.3942"
       height="144.2971"
       width="80.893829"
       id="player"
       style="display:inline;fill:#800000;fill-opacity:1;stroke:none;stroke-width:0.10225257;stroke-miterlimit:4;stroke-dasharray:none" />
  </g>
  <g
     inkscape:groupmode="layer"
     id="level"
     inkscape:label="level"
     style="display:inline">
    <text
       id="text817"
       y="218.97609"
       x="1008.4254"
       style="font-style:normal;font-variant:normal;font-weight:normal;font-stretch:normal;font-size:64px;line-height:1.25;font-family:Vollkorn;-inkscape-font-specification:'Vollkorn, Normal';font-variant-ligatures:normal;font-variant-caps:normal;font-variant-numeric:normal;font-feature-settings:normal;text-align:start;letter-spacing:0px;word-spacing:0px;writing-mode:lr-tb;text-anchor:start;display:inline;fill:#000000;fill-opacity:1;stroke:none;stroke-width:0.27054325"
       xml:space="preserve"><tspan
         id="tspan1691"
         style="font-style:normal;font-variant:normal;font-weight:normal;font-stretch:normal;font-size:64px;font-family:Vollkorn;-inkscape-font-specification:'Vollkorn, Normal';font-variant-ligatures:normal;font-variant-caps:normal;font-variant-numeric:normal;font-feature-settings:normal;text-align:start;letter-spacing:1.35271633px;word-spacing:0px;writing-mode:lr-tb;text-anchor:start;fill:#000000;fill-opacity:1;stroke-width:0.27054325"
         y="218.97609"
         x="1008.4254"
         sodipodi:role="line">Branches</tspan></text>
    <text
       xml:space="preserve"
       style="font-style:normal;font-variant:normal;font-weight:normal;font-stretch:normal;font-size:64px;line-height:1.25;font-family:vollkorn;-inkscape-font-specification:'vollkorn, Normal';font-variant-ligatures:normal;font-variant-caps:normal;font-variant-numeric:normal;font-feature-settings:normal;text-align:start;letter-spacing:0px;word-spacing:0px;writing-mode:lr-tb;text-anchor:start;fill:#000000;fill-opacity:1;stroke:none"
       x="616.72632"
       y="390.10751"
       id="text3252"><tspan
         sodipodi:role="line"
         id="tspan3250"
         x="616.72632"
         y="390.10751">form a</tspan></text>
    <text
       xml:space="preserve"
       style="font-style:normal;font-variant:normal;font-weight:normal;font-stretch:normal;font-size:64px;line-height:1.25;font-family:vollkorn;-inkscape-font-specification:'vollkorn, Normal';font-variant-ligatures:normal;font-variant-caps:normal;font-variant-numeric:normal;font-feature-settings:normal;text-align:start;letter-spacing:0px;word-spacing:0px;writing-mode:lr-tb;text-anchor:start;fill:#000000;fill-opacity:1;stroke:none"
       x="1027.4702"
       y="591.70752"
       id="text3256"><tspan
         sodipodi:role="line"
         id="tspan3254"
         x="1027.4702"
         y="591.70752">ladder</tspan></text>
    <text
       xml:space="preserve"
       style="font-style:normal;font-variant:normal;font-weight:normal;font-stretch:normal;font-size:64px;line-height:1.25;font-family:vollkorn;-inkscape-font-specification:'vollkorn, Normal';font-variant-ligatures:normal;font-variant-caps:normal;font-variant-numeric:normal;font-feature-settings:normal;text-align:start;letter-spacing:0px;word-spacing:0px;writing-mode:lr-tb;text-anchor:start;fill:#000000;fill-opacity:1;stroke:none"
       x="602.6123"
       y="801.24811"
       id="text3260"><tspan
         sodipodi:role="line"
         id="tspan3258"
         x="602.6123"
         y="801.24811">that leads</tspan></text>
    <text
       xml:space="preserve"
       style="font-style:normal;font-variant:normal;font-weight:normal;font-stretch:normal;font-size:64px;line-height:1.25;font-family:vollkorn;-inkscape-font-specification:'vollkorn, Normal';font-variant-ligatures:normal;font-variant-caps:normal;font-variant-numeric:normal;font-feature-settings:normal;text-align:start;letter-spacing:0px;word-spacing:0px;writing-mode:lr-tb;text-anchor:start;fill:#000000;fill-opacity:1;stroke:none"
       x="1015.7573"
       y="1018.2858"
       id="text3264"><tspan
         sodipodi:role="line"
         id="tspan3262"
         x="1015.7573"
         y="1018.2858">you down</tspan></text>
  </g>
</svg>
